<?xml version="1.0" standalone="no"?>
<!DOCTYPE svg PUBLIC "-//W3C//DTD SVG 1.1//EN" "http://www.w3.org/Graphics/SVG/1.1/DTD/svg11.dtd" >
<svg xmlns="http://www.w3.org/2000/svg" xmlns:xlink="http://www.w3.org/1999/xlink" version="1.1">
<metadata>
Created by FontForge 20160111 at Sat May 21 12:51:23 2016
 By root
Copyright (c) 1988, 1990, 1993 Adobe Systems Incorporated.  All Rights Reserved.Helvetica is a trademark of Linotype-Hell AG and/or its subsidiaries.
</metadata>
<defs>
<font id="HelveticaNeue-Roman" horiz-adv-x="556" >
  <font-face 
    font-family="Helvetica Neue"
    font-weight="400"
    font-stretch="normal"
    units-per-em="1000"
    panose-1="2 11 5 0 0 0 0 0 0 0"
    ascent="786"
    descent="-214"
    x-height="517"
    cap-height="714"
    bbox="-166 -214 1076 952"
    underline-thickness="50"
    underline-position="-100"
    stemh="75"
    stemv="85"
    unicode-range="U+0020-FB02"
  />
<missing-glyph horiz-adv-x="278" 
 />
    <glyph glyph-name=".notdef" horiz-adv-x="278" 
 />
    <glyph glyph-name="space" unicode=" " horiz-adv-x="278" 
 />
    <glyph glyph-name="space" unicode="&#xa0;" horiz-adv-x="278" 
 />
    <glyph glyph-name="exclam" unicode="!" horiz-adv-x="259" 
d="M177 714v-220l-25 -311h-45l-25 311v220h95zM74 0v111h111v-111h-111z" />
    <glyph glyph-name="quotedbl" unicode="&#x22;" horiz-adv-x="426" 
d="M109 456v258h68v-258h-68zM249 456v258h68v-258h-68z" />
    <glyph glyph-name="numbersign" unicode="#" 
d="M102 0l29 206h-97v68h107l21 150h-102v68h111l29 205h69l-29 -205h124l29 205h69l-29 -205h89v-68h-98l-21 -150h91v-68h-101l-29 -206h-69l29 206h-124l-29 -206h-69zM355 424h-124l-21 -150h124z" />
    <glyph glyph-name="dollar" unicode="$" 
d="M251 417v234c-64 -7 -115 -45 -115 -121c0 -71 48 -93 115 -113zM306 314v-251c75 6 129 42 129 128c0 76 -56 102 -129 123zM25 218h85c3 -89 61 -142 141 -155v265c-141 34 -205 76 -205 193c0 121 90 203 205 210v66h55v-67c108 -13 171 -83 197 -198h-85
c-13 65 -52 105 -112 116v-246l60 -16c51 -13 159 -63 159 -186c0 -129 -92 -207 -219 -217v-82h-55v82c-131 13 -215 97 -226 235z" />
    <glyph glyph-name="percent" unicode="%" horiz-adv-x="1000" 
d="M188 -22l538 744h85l-537 -744h-86zM586 186c0 107 39 203 162 203c124 0 160 -91 160 -200c0 -104 -44 -201 -160 -201c-121 0 -162 90 -162 198zM661 188c0 -58 9 -145 84 -145c76 0 88 84 88 146c0 59 -10 145 -85 145c-74 0 -87 -86 -87 -146zM92 506
c0 107 39 203 162 203c124 0 160 -91 160 -200c0 -104 -44 -201 -160 -201c-121 0 -162 90 -162 198zM167 508c0 -58 9 -145 84 -145c76 0 88 84 88 146c0 59 -10 145 -85 145c-74 0 -87 -86 -87 -146z" />
    <glyph glyph-name="ampersand" unicode="&#x26;" horiz-adv-x="630" 
d="M411 148l-164 197c-67 -38 -124 -76 -124 -161c0 -72 67 -121 136 -121c65 0 117 33 152 85zM534 0l-76 89c-43 -67 -124 -101 -202 -101c-193 0 -223 137 -223 195c0 112 76 168 167 216c-40 57 -79 95 -79 168c0 78 58 147 161 147c89 0 173 -49 173 -146
c0 -85 -65 -146 -134 -185l129 -157c13 35 21 73 23 111h81c-7 -84 -18 -113 -48 -176l139 -161h-111zM275 439c41 26 95 64 95 124c0 41 -31 76 -82 76c-40 0 -82 -24 -82 -76c0 -43 38 -85 69 -124z" />
    <glyph glyph-name="quoteright" unicode="&#x2019;" horiz-adv-x="278" 
d="M83 603v111h111v-111c0 -79 -33 -147 -110 -147v50c45 0 58 51 58 97h-59z" />
    <glyph glyph-name="parenleft" unicode="(" horiz-adv-x="259" 
d="M269 -198h-65c-96 150 -157 293 -157 468c0 156 55 325 157 461h65c-95 -150 -132 -299 -132 -461c0 -168 37 -315 132 -468z" />
    <glyph glyph-name="parenright" unicode=")" horiz-adv-x="259" 
d="M55 -198h-65c95 150 132 299 132 461c0 168 -37 315 -132 468h65c96 -150 157 -293 157 -468c0 -156 -55 -325 -157 -461z" />
    <glyph glyph-name="asterisk" unicode="*" horiz-adv-x="352" 
d="M201 714v-113l107 40l20 -48l-109 -38l66 -91l-41 -31l-69 96l-65 -96l-45 31l65 91l-106 38l18 48l106 -40v113h53z" />
    <glyph glyph-name="plus" unicode="+" horiz-adv-x="600" 
d="M334 506v-219h218v-68h-218v-219h-68v219h-218v68h218v219h68z" />
    <glyph glyph-name="comma" unicode="," horiz-adv-x="278" 
d="M83 0v111h111v-101c0 -75 -33 -135 -110 -157v50c45 15 60 65 58 97h-59z" />
    <glyph glyph-name="hyphen" unicode="-" horiz-adv-x="389" 
d="M50 238v80h289v-80h-289z" />
    <glyph glyph-name="hyphen" unicode="&#xad;" horiz-adv-x="389" 
d="M50 238v80h289v-80h-289z" />
    <glyph glyph-name="period" unicode="." horiz-adv-x="278" 
d="M83 0v111h111v-111h-111z" />
    <glyph glyph-name="slash" unicode="/" horiz-adv-x="333" 
d="M-18 -17l296 748h73l-296 -748h-73z" />
    <glyph glyph-name="zero" unicode="0" 
d="M42 348c0 157 14 361 236 361s236 -204 236 -361c0 -156 -14 -360 -236 -360s-236 204 -236 360zM132 349c0 -106 1 -286 146 -286s146 180 146 286c0 105 -1 285 -146 285s-146 -180 -146 -285z" />
    <glyph glyph-name="one" unicode="1" 
d="M356 709v-709h-85v508h-184v68c97 0 185 26 204 133h65z" />
    <glyph glyph-name="two" unicode="2" 
d="M129 458h-85c-7 144 78 251 228 251c124 0 222 -72 222 -204c0 -125 -84 -188 -172 -243c-89 -54 -182 -99 -199 -187h364v-75h-463c14 168 99 228 199 290c120 74 181 118 181 216c0 77 -62 128 -137 128c-99 0 -141 -91 -138 -176z" />
    <glyph glyph-name="three" unicode="3" 
d="M218 333v72c13 -1 25 -1 37 -1c72 0 135 39 135 116c0 74 -54 114 -126 114c-93 0 -133 -71 -134 -154h-85c5 135 77 229 219 229c123 0 216 -59 216 -190c0 -62 -44 -116 -98 -141v-2c86 -19 128 -87 128 -172c0 -142 -111 -216 -244 -216c-144 0 -239 85 -236 231h85
c3 -92 54 -156 151 -156c83 0 154 51 154 137c0 89 -67 136 -151 136c-17 0 -35 -1 -51 -3z" />
    <glyph glyph-name="four" unicode="4" 
d="M419 709v-468h96v-75h-96v-166h-80v166h-311v82l323 461h68zM101 241h238v347h-2z" />
    <glyph glyph-name="five" unicode="5" 
d="M470 697v-75h-286l-38 -204l2 -2c31 35 84 51 132 51c126 0 229 -81 229 -243c0 -120 -83 -236 -248 -236c-123 0 -223 75 -226 203h85c5 -73 64 -128 149 -128c81 0 150 55 150 168c0 94 -65 161 -160 161c-54 0 -99 -27 -132 -67l-73 4l66 368h350z" />
    <glyph glyph-name="six" unicode="6" 
d="M286 381c-95 0 -147 -71 -147 -160c0 -88 54 -158 147 -158c92 0 143 73 143 157c0 88 -46 161 -143 161zM499 528h-85c-8 64 -52 106 -119 106c-145 0 -168 -160 -172 -269l2 -2c40 65 100 93 177 93c136 0 217 -99 217 -230c0 -103 -58 -238 -237 -238
c-210 0 -244 192 -244 341c0 195 59 380 261 380c117 0 190 -66 200 -181z" />
    <glyph glyph-name="seven" unicode="7" 
d="M509 697v-73c-143 -142 -259 -402 -272 -624h-95c16 240 131 459 280 617h-372v80h459z" />
    <glyph glyph-name="eight" unicode="8" 
d="M130 200c0 -85 63 -137 151 -137c85 0 145 59 145 138c0 77 -66 135 -146 135c-84 0 -150 -54 -150 -136zM65 528c0 117 99 181 208 181c155 0 215 -91 215 -181c0 -63 -40 -121 -98 -147c85 -27 126 -89 126 -177c0 -137 -104 -216 -235 -216c-136 0 -241 71 -241 216
c0 84 45 149 124 177c-59 24 -99 83 -99 147zM155 525c0 -78 56 -114 126 -114c67 0 117 42 117 114c0 71 -50 109 -119 109c-68 0 -124 -38 -124 -109z" />
    <glyph glyph-name="nine" unicode="9" 
d="M409 472c0 87 -51 162 -146 162c-101 0 -139 -81 -139 -168c0 -78 58 -150 140 -150c89 0 145 72 145 156zM49 171h85c6 -69 62 -108 130 -108c104 0 155 91 160 274l-2 2c-32 -60 -95 -98 -164 -98c-144 0 -224 97 -224 237c0 137 96 231 233 231
c132 0 243 -71 243 -339c0 -245 -74 -382 -246 -382c-119 0 -204 61 -215 183z" />
    <glyph glyph-name="colon" unicode=":" horiz-adv-x="278" 
d="M83 0v111h111v-111h-111zM194 517v-111h-111v111h111z" />
    <glyph glyph-name="semicolon" unicode=";" horiz-adv-x="278" 
d="M83 0v111h111v-101c1 -75 -33 -135 -110 -157v50c45 15 60 65 58 97h-59zM194 517v-111h-111v111h111z" />
    <glyph glyph-name="less" unicode="&#x3c;" horiz-adv-x="600" 
d="M554 514v-68l-425 -193l425 -193v-68l-508 230v62z" />
    <glyph glyph-name="equal" unicode="=" horiz-adv-x="600" 
d="M552 388v-68h-504v68h504zM48 118v68h504v-68h-504z" />
    <glyph glyph-name="greater" unicode="&#x3e;" horiz-adv-x="600" 
d="M46 -8v68l425 193l-425 193v68l508 -230v-62z" />
    <glyph glyph-name="question" unicode="?" 
d="M140 491h-85c-2 137 84 240 224 240c123 0 211 -73 211 -200c0 -82 -42 -128 -86 -170c-43 -41 -87 -80 -87 -148v-39h-85v47c0 82 50 127 90 167c39 39 83 77 78 151c-5 73 -50 117 -121 117c-95 0 -140 -73 -139 -165zM218 0v111h111v-111h-111z" />
    <glyph glyph-name="at" unicode="@" horiz-adv-x="800" 
d="M420 505c-94 0 -160 -122 -160 -209c0 -56 36 -97 86 -97c87 0 155 131 155 213c0 48 -39 93 -81 93zM618 554l-84 -284c-5 -17 -11 -36 -11 -51c0 -18 7 -31 24 -31c61 0 138 123 138 230c0 158 -131 258 -271 258c-171 0 -304 -146 -304 -321c0 -178 141 -317 309 -317
c95 0 192 48 248 121h63c-64 -110 -185 -176 -313 -176c-211 0 -375 166 -375 377c0 206 168 371 371 371c185 0 340 -128 340 -308c0 -174 -140 -290 -234 -290c-34 0 -62 21 -64 65h-3c-30 -35 -75 -67 -124 -67c-85 0 -143 70 -143 158c0 139 94 284 235 284
c46 0 89 -22 112 -82l23 63h63z" />
    <glyph glyph-name="A" unicode="A" horiz-adv-x="648" 
d="M-7 0l279 714h105l279 -714h-105l-78 215h-302l-80 -215h-98zM322 628l-121 -333h242l-119 333h-2z" />
    <glyph glyph-name="B" unicode="B" horiz-adv-x="685" 
d="M173 327v-247h238c82 0 134 50 134 128c0 93 -75 119 -155 119h-217zM78 0v714h259c63 0 146 0 189 -26c47 -28 84 -79 84 -149c0 -76 -40 -133 -106 -160v-2c88 -18 136 -84 136 -172c0 -105 -75 -205 -217 -205h-345zM173 634v-227h190c108 0 152 39 152 114
c0 99 -70 113 -152 113h-190z" />
    <glyph glyph-name="C" unicode="C" horiz-adv-x="722" 
d="M675 499h-95c-20 101 -101 152 -200 152c-170 0 -242 -140 -242 -289c0 -163 72 -299 243 -299c125 0 197 88 206 206h95c-18 -178 -129 -286 -309 -286c-222 0 -330 164 -330 372c0 207 118 376 338 376c149 0 272 -80 294 -232z" />
    <glyph glyph-name="D" unicode="D" horiz-adv-x="704" 
d="M78 0v714h245c220 0 343 -110 343 -340c0 -239 -105 -374 -343 -374h-245zM173 634v-554h158c65 0 240 18 240 281c0 170 -63 273 -238 273h-160z" />
    <glyph glyph-name="E" unicode="E" horiz-adv-x="611" 
d="M78 0v714h493v-80h-398v-227h371v-80h-371v-247h401v-80h-496z" />
    <glyph glyph-name="F" unicode="F" horiz-adv-x="574" 
d="M78 0v714h469v-80h-374v-227h328v-80h-328v-327h-95z" />
    <glyph glyph-name="G" unicode="G" horiz-adv-x="759" 
d="M637 0l-25 89c-55 -75 -145 -106 -229 -106c-213 0 -340 174 -340 360c0 208 114 388 340 388c156 0 280 -70 307 -237h-95c-19 108 -106 157 -212 157c-173 0 -245 -150 -245 -303c0 -149 86 -285 245 -285c147 0 235 103 229 233h-228v80h313v-376h-60z" />
    <glyph glyph-name="H" unicode="H" horiz-adv-x="722" 
d="M78 0v714h95v-307h376v307h95v-714h-95v327h-376v-327h-95z" />
    <glyph glyph-name="I" unicode="I" horiz-adv-x="259" 
d="M82 0v714h95v-714h-95z" />
    <glyph glyph-name="J" unicode="J" horiz-adv-x="519" 
d="M441 714v-536c0 -97 -51 -195 -211 -195c-133 0 -208 74 -208 208v44h95v-30c0 -83 22 -142 115 -142c87 0 114 50 114 129v522h95z" />
    <glyph glyph-name="K" unicode="K" horiz-adv-x="667" 
d="M78 0v714h95v-356l362 356h123l-301 -288l313 -426h-120l-258 361l-119 -111v-250h-95z" />
    <glyph glyph-name="L" unicode="L" 
d="M78 0v714h95v-634h378v-80h-473z" />
    <glyph glyph-name="M" unicode="M" horiz-adv-x="871" 
d="M80 0v714h130l225 -600l226 600h130v-714h-90v594h-2l-223 -594h-81l-223 594h-2v-594h-90z" />
    <glyph glyph-name="N" unicode="N" horiz-adv-x="722" 
d="M77 0v714h101l376 -579h2v579h90v-714h-104l-373 573h-2v-573h-90z" />
    <glyph glyph-name="O" unicode="O" horiz-adv-x="760" 
d="M38 357c0 194 115 374 342 374s342 -180 342 -374s-115 -374 -342 -374s-342 180 -342 374zM133 357c0 -144 73 -294 247 -294s247 150 247 294s-73 294 -247 294s-247 -150 -247 -294z" />
    <glyph glyph-name="P" unicode="P" horiz-adv-x="648" 
d="M78 0v714h313c142 0 219 -79 219 -211s-77 -212 -219 -211h-218v-292h-95zM173 634v-262h186c107 -1 156 46 156 131s-49 131 -156 131h-186z" />
    <glyph glyph-name="Q" unicode="Q" horiz-adv-x="760" 
d="M708 -2l-48 -60l-109 88c-47 -28 -104 -43 -171 -43c-227 0 -342 180 -342 374s115 374 342 374s342 -180 342 -374c0 -109 -36 -214 -108 -284zM400 146l50 58l95 -76c56 55 82 143 82 229c0 144 -73 294 -247 294s-247 -150 -247 -294s73 -294 247 -294
c37 0 69 7 99 20z" />
    <glyph glyph-name="R" unicode="R" horiz-adv-x="685" 
d="M173 385h198c89 0 165 23 165 127c0 70 -38 122 -127 122h-236v-249zM78 0v714h336c134 0 217 -73 217 -187c0 -86 -38 -157 -124 -181v-2c83 -16 100 -77 107 -147c6 -70 2 -148 42 -197h-106c-27 29 -12 106 -26 176c-10 70 -27 129 -119 129h-232v-305h-95z" />
    <glyph glyph-name="S" unicode="S" horiz-adv-x="648" 
d="M581 505h-90c-11 102 -79 146 -177 146c-80 0 -160 -29 -160 -122c0 -88 114 -101 229 -127c114 -26 228 -66 228 -206c0 -152 -149 -213 -279 -213c-160 0 -295 78 -295 252h90c0 -120 100 -172 208 -172c86 0 181 27 181 130c0 98 -114 115 -228 140s-229 58 -229 189
c0 145 129 209 259 209c146 0 257 -69 263 -226z" />
    <glyph glyph-name="T" unicode="T" horiz-adv-x="574" 
d="M240 0v634h-238v80h571v-80h-238v-634h-95z" />
    <glyph glyph-name="U" unicode="U" horiz-adv-x="722" 
d="M648 714v-456c0 -180 -103 -275 -281 -275c-184 0 -293 85 -293 275v456h95v-456c0 -126 72 -195 198 -195c120 0 186 69 186 195v456h95z" />
    <glyph glyph-name="V" unicode="V" horiz-adv-x="611" 
d="M613 714l-254 -714h-108l-252 714h103l204 -619h2l206 619h99z" />
    <glyph glyph-name="W" unicode="W" horiz-adv-x="926" 
d="M914 714l-191 -714h-99l-163 600h-2l-165 -600h-99l-183 714h97l140 -594h2l160 594h103l158 -594h2l145 594h95z" />
    <glyph glyph-name="X" unicode="X" horiz-adv-x="611" 
d="M-1 0l249 367l-235 347h114l178 -279l186 279h106l-236 -347l251 -367h-116l-192 295l-198 -295h-107z" />
    <glyph glyph-name="Y" unicode="Y" horiz-adv-x="648" 
d="M646 714l-273 -422v-292h-95v292l-276 422h113l214 -340l209 340h108z" />
    <glyph glyph-name="Z" unicode="Z" horiz-adv-x="611" 
d="M22 0v80l444 554h-410v80h522v-80l-443 -554h455v-80h-568z" />
    <glyph glyph-name="bracketleft" unicode="[" horiz-adv-x="259" 
d="M259 731v-68h-107v-793h107v-68h-187v929h187z" />
    <glyph glyph-name="backslash" unicode="\" horiz-adv-x="333" 
d="M55 731l296 -748h-73l-296 748h73z" />
    <glyph glyph-name="bracketright" unicode="]" horiz-adv-x="259" 
d="M0 -198v68h107v793h-107v68h187v-929h-187z" />
    <glyph glyph-name="asciicircum" unicode="^" horiz-adv-x="600" 
d="M50 264l218 433h64l218 -433h-70l-181 360l-178 -360h-71z" />
    <glyph glyph-name="underscore" unicode="_" horiz-adv-x="500" 
d="M0 -125v50h500v-50h-500z" />
    <glyph glyph-name="quoteleft" unicode="&#x2018;" horiz-adv-x="278" 
d="M195 567v-111h-111v111c0 79 33 147 110 147v-50c-45 0 -58 -51 -58 -97h59z" />
    <glyph glyph-name="a" unicode="a" horiz-adv-x="537" 
d="M384 180v87c-33 -24 -97 -25 -154 -35c-56 -10 -104 -30 -104 -93c0 -56 48 -76 100 -76c112 0 158 70 158 117zM522 68v-66c-15 -9 -34 -14 -61 -14c-44 0 -72 24 -72 80c-47 -55 -110 -80 -182 -80c-94 0 -171 42 -171 145c0 117 87 142 175 159c94 18 174 12 174 76
c0 74 -61 86 -115 86c-72 0 -125 -22 -129 -98h-85c5 128 104 173 219 173c93 0 194 -21 194 -142v-266c0 -40 0 -58 27 -58c7 0 15 1 26 5z" />
    <glyph glyph-name="b" unicode="b" horiz-adv-x="593" 
d="M467 263c0 97 -50 191 -160 191c-114 0 -158 -98 -158 -195c0 -102 46 -196 163 -196c116 0 155 99 155 200zM67 0v714h85v-267h2c28 57 94 82 165 82c159 0 238 -126 238 -272s-78 -269 -236 -269c-53 0 -129 20 -167 81h-2v-69h-85z" />
    <glyph glyph-name="c" unicode="c" horiz-adv-x="537" 
d="M503 351h-88c-13 65 -58 103 -128 103c-123 0 -161 -97 -161 -202c0 -95 43 -189 151 -189c82 0 131 48 142 126h87c-19 -126 -98 -201 -228 -201c-158 0 -242 110 -242 264c0 155 80 277 244 277c117 0 211 -55 223 -178z" />
    <glyph glyph-name="d" unicode="d" horiz-adv-x="593" 
d="M526 714v-714h-85v70h-2c-28 -57 -94 -82 -165 -82c-159 0 -238 126 -238 272s78 269 236 269c53 0 129 -20 167 -81h2v266h85zM126 254c0 -97 50 -191 160 -191c114 0 158 98 158 195c0 102 -46 196 -163 196c-116 0 -155 -99 -155 -200z" />
    <glyph glyph-name="e" unicode="e" horiz-adv-x="537" 
d="M421 164h84c-23 -114 -105 -176 -221 -176c-165 0 -243 114 -248 272c0 155 102 269 243 269c183 0 239 -171 234 -296h-387c-3 -90 48 -170 161 -170c70 0 119 34 134 101zM126 308h297c-4 81 -65 146 -149 146c-89 0 -142 -67 -148 -146z" />
    <glyph glyph-name="f" unicode="f" horiz-adv-x="296" 
d="M99 0v442h-87v75h87v77c0 84 50 128 143 128c16 0 39 -3 55 -8v-74c-15 5 -33 7 -48 7c-41 0 -65 -13 -65 -58v-72h100v-75h-100v-442h-85z" />
    <glyph glyph-name="g" unicode="g" horiz-adv-x="574" 
d="M272 69c112 0 154 103 154 200c0 91 -40 185 -147 185c-109 0 -153 -89 -153 -188c0 -93 34 -197 146 -197zM510 517v-473c0 -168 -77 -254 -240 -254c-97 0 -209 39 -214 152h85c4 -62 78 -84 134 -84c111 0 155 80 155 196v34h-2c-28 -63 -96 -94 -161 -94
c-154 0 -231 121 -231 262c0 122 60 273 239 273c65 0 123 -29 154 -86h1v74h80z" />
    <glyph glyph-name="h" unicode="h" 
d="M64 0v714h85v-273h2c28 62 101 88 163 88c136 0 178 -78 178 -189v-340h-85v350c0 63 -40 104 -105 104c-103 0 -153 -69 -153 -162v-292h-85z" />
    <glyph glyph-name="i" unicode="i" horiz-adv-x="222" 
d="M69 0v517h85v-517h-85zM154 714v-104h-85v104h85z" />
    <glyph glyph-name="j" unicode="j" horiz-adv-x="222" 
d="M154 517v-583c0 -92 -49 -132 -124 -132c-14 0 -29 1 -44 4v73c12 -2 23 -2 35 -2c37 0 48 18 48 71v569h85zM154 714v-104h-85v104h85z" />
    <glyph glyph-name="k" unicode="k" horiz-adv-x="519" 
d="M69 0v714h85v-423l236 226h114l-205 -188l220 -329h-108l-177 270l-80 -74v-196h-85z" />
    <glyph glyph-name="l" unicode="l" horiz-adv-x="222" 
d="M69 0v714h85v-714h-85z" />
    <glyph glyph-name="m" unicode="m" horiz-adv-x="853" 
d="M64 0v517h80v-76h2c38 58 96 88 167 88c63 0 121 -25 142 -88c35 55 96 88 162 88c103 0 172 -43 172 -150v-379h-85v339c0 64 -17 115 -100 115c-82 0 -135 -52 -135 -132v-322h-85v339c0 67 -21 115 -97 115c-101 0 -138 -93 -138 -132v-322h-85z" />
    <glyph glyph-name="n" unicode="n" 
d="M64 0v517h80v-82h2c36 64 94 94 168 94c136 0 178 -78 178 -189v-340h-85v350c0 63 -40 104 -105 104c-103 0 -153 -69 -153 -162v-292h-85z" />
    <glyph glyph-name="o" unicode="o" horiz-adv-x="574" 
d="M36 258c0 152 87 271 251 271s251 -119 251 -271c0 -151 -87 -270 -251 -270s-251 119 -251 270zM126 258c0 -125 72 -195 161 -195s161 70 161 195c0 126 -72 196 -161 196s-161 -70 -161 -196z" />
    <glyph glyph-name="p" unicode="p" horiz-adv-x="593" 
d="M467 263c0 97 -50 191 -160 191c-114 0 -158 -98 -158 -195c0 -102 46 -196 163 -196c116 0 155 99 155 200zM67 -198v715h85v-70h2c28 57 94 82 165 82c159 0 238 -126 238 -272s-78 -269 -236 -269c-53 0 -129 20 -167 81h-2v-267h-85z" />
    <glyph glyph-name="q" unicode="q" horiz-adv-x="593" 
d="M526 517v-715h-85v268h-2c-28 -57 -94 -82 -165 -82c-159 0 -238 126 -238 272s78 269 236 269c53 0 129 -20 167 -81h2v69h85zM126 254c0 -97 50 -191 160 -191c114 0 158 98 158 195c0 102 -46 196 -163 196c-116 0 -155 -99 -155 -200z" />
    <glyph glyph-name="r" unicode="r" horiz-adv-x="333" 
d="M61 0v517h80v-109h2c41 83 98 124 190 121v-90c-137 0 -187 -78 -187 -209v-230h-85z" />
    <glyph glyph-name="s" unicode="s" horiz-adv-x="500" 
d="M31 163h85c3 -76 69 -100 139 -100c53 0 125 12 125 77c0 66 -84 77 -169 96c-84 19 -169 47 -169 146c0 104 103 147 193 147c114 0 205 -36 212 -162h-85c-6 66 -64 87 -120 87c-51 0 -110 -14 -110 -66c0 -61 90 -71 169 -90c85 -19 169 -47 169 -147
c0 -123 -115 -163 -220 -163c-116 0 -214 47 -219 175z" />
    <glyph glyph-name="t" unicode="t" horiz-adv-x="315" 
d="M182 672v-155h103v-75h-103v-321c0 -39 11 -46 64 -46h39v-75h-65c-88 0 -123 18 -123 113v329h-88v75h88v155h85z" />
    <glyph glyph-name="u" unicode="u" 
d="M492 517v-517h-80v82h-2c-36 -64 -94 -94 -168 -94c-136 0 -178 78 -178 189v340h85v-350c0 -63 40 -104 105 -104c103 0 153 69 153 162v292h85z" />
    <glyph glyph-name="v" unicode="v" horiz-adv-x="500" 
d="M486 517l-189 -517h-91l-192 517h95l145 -431h2l141 431h89z" />
    <glyph glyph-name="w" unicode="w" horiz-adv-x="758" 
d="M741 517l-165 -517h-90l-105 411h-2l-104 -411h-92l-166 517h94l117 -423h2l104 423h93l108 -423h2l116 423h88z" />
    <glyph glyph-name="x" unicode="x" horiz-adv-x="518" 
d="M9 0l194 272l-180 245h109l124 -181l129 181h102l-178 -238l200 -279h-109l-144 214l-144 -214h-103z" />
    <glyph glyph-name="y" unicode="y" horiz-adv-x="500" 
d="M492 517l-225 -586c-39 -101 -74 -138 -150 -138c-20 0 -40 2 -59 9v78c16 -5 33 -12 50 -12c35 0 54 17 70 47l35 88l-205 514h96l151 -423h2l145 423h90z" />
    <glyph glyph-name="z" unicode="z" horiz-adv-x="480" 
d="M22 0v65l312 377h-292v75h402v-58l-316 -384h330v-75h-436z" />
    <glyph glyph-name="braceleft" unicode="{" horiz-adv-x="333" 
d="M309 731v-60h-50c-39 0 -48 -44 -48 -86v-183c0 -94 -64 -128 -87 -134v-3c23 -3 87 -32 87 -134v-183c0 -41 9 -86 48 -86h50v-60h-70c-50 0 -108 46 -108 131v182c0 73 -41 117 -83 117v68c42 0 83 48 83 118v182c0 85 58 131 108 131h70z" />
    <glyph glyph-name="bar" unicode="|" horiz-adv-x="222" 
d="M77 -214v1000h68v-1000h-68z" />
    <glyph glyph-name="braceright" unicode="}" horiz-adv-x="333" 
d="M24 -198v60h50c39 0 48 44 48 86v183c0 94 64 128 87 134v3c-23 3 -87 32 -87 134v181c0 43 -9 88 -48 88h-50v60h70c50 0 108 -46 108 -131v-182c0 -73 41 -118 83 -118v-68c-42 0 -83 -47 -83 -117v-182c0 -85 -58 -131 -108 -131h-70z" />
    <glyph glyph-name="asciitilde" unicode="~" horiz-adv-x="600" 
d="M495 319l36 -50c-30 -42 -63 -86 -125 -86c-37 0 -69 15 -102 33c-32 18 -69 39 -115 39c-44 0 -68 -41 -84 -76l-36 50c22 42 58 86 125 86c34 0 73 -15 111 -32c37 -16 75 -40 102 -40c40 0 65 41 88 76z" />
    <glyph glyph-name="exclamdown" unicode="&#xa1;" horiz-adv-x="259" 
d="M82 -198v220l25 311h45l25 -311v-220h-95zM185 517v-111h-111v111h111z" />
    <glyph glyph-name="cent" unicode="&#xa2;" 
d="M272 63v391c-103 -13 -136 -103 -136 -202c0 -91 39 -182 136 -189zM272 -116v104c-146 6 -226 116 -226 264c0 144 76 267 226 277v95h39v-95c109 -3 189 -57 203 -178h-87c-13 61 -52 101 -116 103v-391c72 7 110 58 121 126h85c-10 -99 -81 -201 -206 -201v-104h-39z
" />
    <glyph glyph-name="sterling" unicode="&#xa3;" 
d="M47 327v45h58c-27 45 -47 94 -47 156c0 127 106 203 228 203c147 0 239 -87 236 -258h-85c-3 115 -50 183 -146 183c-80 0 -143 -57 -143 -131c0 -66 29 -104 52 -153h159v-45h-137c11 -21 20 -47 20 -75c0 -90 -56 -139 -116 -188l2 -2c34 15 65 29 105 29
c39 0 68 -8 95 -15c27 -8 53 -18 84 -18c32 0 65 18 89 37l43 -66c-40 -34 -94 -46 -146 -46c-33 0 -65 9 -99 20c-33 10 -67 21 -105 21c-39 0 -69 -14 -100 -35l-47 66c57 38 110 102 110 179c0 30 -13 67 -25 93h-85z" />
    <glyph glyph-name="fraction" unicode="&#x2044;" horiz-adv-x="167" 
d="M-166 -28l435 753h64l-435 -753h-64z" />
    <glyph glyph-name="fraction" unicode="&#x2215;" horiz-adv-x="167" 
d="M-166 -28l435 753h64l-435 -753h-64z" />
    <glyph glyph-name="yen" unicode="&#xa5;" 
d="M232 0v174h-141v60h141v42l-18 33h-123v60h92l-183 345h109l174 -353l169 353h104l-178 -345h93v-60h-126l-18 -33v-42h144v-60h-144v-174h-95z" />
    <glyph glyph-name="florin" unicode="&#x192;" 
d="M492 714l-14 -75h-59c-36 0 -54 -18 -62 -52l-31 -138h102l-14 -68h-100l-55 -311c-32 -182 -79 -235 -190 -235h-66l14 75c105 0 122 10 139 102l70 369h-92l13 68h91l26 136c15 76 69 129 154 129h74z" />
    <glyph glyph-name="section" unicode="&#xa7;" 
d="M190 420c-38 -13 -73 -49 -73 -91c0 -63 56 -93 105 -122c48 -25 95 -52 140 -83c39 16 72 48 72 93c0 57 -63 92 -106 118c-46 28 -93 55 -138 85zM465 546h-85c-1 61 -38 110 -101 110c-53 0 -95 -28 -95 -86c0 -64 82 -101 166 -147c83 -44 166 -97 166 -194
c0 -65 -44 -124 -104 -147c40 -30 59 -70 59 -120c0 -97 -79 -160 -187 -160c-118 0 -193 72 -201 189h85c1 -68 46 -114 114 -114c49 0 101 27 101 83c0 70 -87 107 -174 156c-86 45 -174 101 -174 209c0 62 48 122 107 138c-29 30 -46 63 -46 106c0 104 92 162 185 162
c109 0 181 -60 184 -185z" />
    <glyph glyph-name="currency" unicode="&#xa4;" 
d="M25 555l49 49l56 -56c38 32 95 51 151 51c53 0 107 -19 143 -50l57 56l50 -51l-55 -55c34 -37 52 -93 52 -148s-18 -109 -52 -150l55 -56l-47 -47l-56 58c-38 -36 -93 -55 -148 -55c-58 0 -112 18 -152 54l-55 -58l-48 48l55 58c-33 40 -52 91 -52 146s17 111 54 148z
M281 524c-95 0 -168 -77 -168 -175c0 -97 74 -173 167 -173s163 79 163 175c0 94 -70 173 -162 173z" />
    <glyph glyph-name="quotesingle" unicode="'" horiz-adv-x="278" 
d="M105 456v258h68v-258h-68z" />
    <glyph glyph-name="quotedblleft" unicode="&#x201c;" horiz-adv-x="426" 
d="M360 567v-111h-111v111c0 79 33 147 110 147v-50c-45 0 -58 -51 -58 -97h59zM177 567v-111h-111v111c0 79 33 147 110 147v-50c-45 0 -58 -51 -58 -97h59z" />
    <glyph glyph-name="guillemotleft" unicode="&#xab;" horiz-adv-x="463" 
d="M398 114l-152 120v88l152 120v-86l-100 -78l100 -78v-86zM202 114l-152 120v88l152 120v-86l-100 -78l100 -78v-86z" />
    <glyph glyph-name="guilsinglleft" unicode="&#x2039;" horiz-adv-x="259" 
d="M202 114l-152 120v88l152 120v-86l-100 -78l100 -78v-86z" />
    <glyph glyph-name="guilsinglright" unicode="&#x203a;" horiz-adv-x="259" 
d="M57 442l152 -120v-88l-152 -120v86l100 78l-100 78v86z" />
    <glyph glyph-name="fi" unicode="&#xfb01;" horiz-adv-x="518" 
d="M99 0v442h-87v75h87v77c0 84 50 128 143 128c16 0 39 -3 55 -8v-74c-15 5 -33 7 -48 7c-41 0 -65 -13 -65 -58v-72h100v-75h-100v-442h-85zM450 610h-85v104h85v-104zM450 0h-85v517h85v-517z" />
    <glyph glyph-name="fl" unicode="&#xfb02;" horiz-adv-x="518" 
d="M99 0v442h-87v75h87v77c0 84 50 128 143 128c16 0 39 -3 55 -8v-74c-15 5 -33 7 -48 7c-41 0 -65 -13 -65 -58v-72h100v-75h-100v-442h-85zM365 0v714h85v-714h-85z" />
    <glyph glyph-name="endash" unicode="&#x2013;" horiz-adv-x="500" 
d="M0 238v80h500v-80h-500z" />
    <glyph glyph-name="dagger" unicode="&#x2020;" 
d="M236 -155v597h-194v75h194v197h80v-197h198v-75h-198v-597h-80z" />
    <glyph glyph-name="daggerdbl" unicode="&#x2021;" 
d="M236 -155v197h-194v75h194v325h-194v75h194v197h80v-197h198v-75h-198v-325h198v-75h-198v-197h-80z" />
    <glyph glyph-name="periodcentered" unicode="&#xb7;" horiz-adv-x="278" 
d="M75 311c0 35 30 64 64 64s64 -30 64 -64c0 -32 -30 -64 -63 -64c-35 0 -65 30 -65 64z" />
    <glyph glyph-name="periodcentered" unicode="&#x2219;" horiz-adv-x="278" 
d="M75 311c0 35 30 64 64 64s64 -30 64 -64c0 -32 -30 -64 -63 -64c-35 0 -65 30 -65 64z" />
    <glyph glyph-name="paragraph" unicode="&#xb6;" horiz-adv-x="600" 
d="M515 714v-869h-68v814h-122v-814h-68v477c-122 0 -209 82 -209 186c0 130 88 206 228 206h239z" />
    <glyph glyph-name="bullet" unicode="&#x2022;" horiz-adv-x="500" 
d="M72 357c0 99 79 178 178 178s179 -79 179 -178s-80 -179 -179 -179s-178 80 -178 179z" />
    <glyph glyph-name="quotesinglbase" unicode="&#x201a;" horiz-adv-x="278" 
d="M83 0v111h111v-111c0 -79 -33 -147 -110 -147v50c45 0 58 51 58 97h-59z" />
    <glyph glyph-name="quotedblbase" unicode="&#x201e;" horiz-adv-x="426" 
d="M66 0v111h111v-111c0 -79 -33 -147 -110 -147v50c45 0 58 51 58 97h-59zM249 0v111h111v-111c0 -79 -33 -147 -110 -147v50c45 0 58 51 58 97h-59z" />
    <glyph glyph-name="quotedblright" unicode="&#x201d;" horiz-adv-x="426" 
d="M249 603v111h111v-111c0 -79 -33 -147 -110 -147v50c45 0 58 51 58 97h-59zM66 603v111h111v-111c0 -79 -33 -147 -110 -147v50c45 0 58 51 58 97h-59z" />
    <glyph glyph-name="guillemotright" unicode="&#xbb;" horiz-adv-x="463" 
d="M65 442l152 -120v-88l-152 -120v86l100 78l-100 78v86zM261 442l152 -120v-88l-152 -120v86l100 78l-100 78v86z" />
    <glyph glyph-name="ellipsis" unicode="&#x2026;" horiz-adv-x="1000" 
d="M111 0v111h111v-111h-111zM444 0v111h111v-111h-111zM777 0v111h111v-111h-111z" />
    <glyph glyph-name="perthousand" unicode="&#x2030;" horiz-adv-x="1148" 
d="M72 535c0 97 40 174 148 174c106 0 146 -72 146 -169c0 -45 -11 -91 -40 -127c-26 -33 -67 -45 -108 -45c-104 0 -146 71 -146 167zM147 538c0 -52 10 -115 72 -115c59 0 72 65 72 114c0 43 -11 117 -68 117c-61 0 -76 -65 -76 -116zM90 -22l538 744h85l-537 -744h-86z
M437 155c0 97 40 174 148 174c106 0 146 -72 146 -169c0 -45 -11 -91 -40 -127c-26 -33 -67 -45 -108 -45c-104 0 -146 71 -146 167zM512 158c0 -52 10 -115 72 -115c59 0 72 65 72 114c0 43 -11 117 -68 117c-61 0 -76 -65 -76 -116zM782 155c0 97 40 174 148 174
c106 0 146 -72 146 -169c0 -45 -11 -91 -40 -127c-26 -33 -67 -45 -108 -45c-104 0 -146 71 -146 167zM857 158c0 -52 10 -115 72 -115c59 0 72 65 72 114c0 43 -11 117 -68 117c-61 0 -76 -65 -76 -116z" />
    <glyph glyph-name="questiondown" unicode="&#xbf;" 
d="M418 30h85c2 -137 -84 -240 -224 -240c-123 0 -211 73 -211 200c0 82 42 128 86 170c43 41 87 80 87 148v31h85v-39c0 -82 -50 -127 -90 -167c-39 -39 -83 -77 -78 -151c5 -73 50 -117 121 -117c95 0 140 73 139 165zM337 517v-111h-111v111h111z" />
    <glyph glyph-name="grave" unicode="`" horiz-adv-x="222" 
d="M108 588l-131 143h109l86 -143h-64z" />
    <glyph glyph-name="acute" unicode="&#xb4;" horiz-adv-x="222" 
d="M50 588l86 143h109l-131 -143h-64z" />
    <glyph glyph-name="circumflex" unicode="&#x2c6;" horiz-adv-x="222" 
d="M-39 588l103 143h93l104 -143h-84l-69 96l-70 -96h-77z" />
    <glyph glyph-name="tilde" unicode="&#x2dc;" horiz-adv-x="222" 
d="M233 711h52c-4 -28 -14 -55 -31 -80c-17 -19 -41 -31 -79 -31c-17 0 -42 10 -66 20c-24 9 -49 19 -67 19c-22 0 -50 -17 -48 -42h-52c16 59 42 110 105 110c26 0 51 -10 74 -20s45 -20 66 -20c26 0 40 24 46 44z" />
    <glyph glyph-name="macron" unicode="&#xaf;" horiz-adv-x="222" 
d="M-59 620v55h341v-55h-341z" />
    <glyph glyph-name="macron" unicode="&#x2c9;" horiz-adv-x="222" 
d="M-59 620v55h341v-55h-341z" />
    <glyph glyph-name="breve" unicode="&#x2d8;" horiz-adv-x="222" 
d="M-45 731h50c16 -56 55 -83 112 -83c58 0 79 32 99 83h51c-14 -85 -70 -138 -158 -138c-91 0 -141 49 -154 138z" />
    <glyph glyph-name="dotaccent" unicode="&#x2d9;" horiz-adv-x="222" 
d="M156 696v-104h-90v104h90z" />
    <glyph glyph-name="dieresis" unicode="&#xa8;" horiz-adv-x="222" 
d="M160 592v104h90v-104h-90zM-28 592v104h90v-104h-90z" />
    <glyph glyph-name="ring" unicode="&#x2da;" horiz-adv-x="222" 
d="M43 662c0 -38 30 -68 68 -68s68 30 68 68s-30 68 -68 68s-68 -30 -68 -68zM-2 662c0 62 51 113 113 113s113 -51 113 -113s-51 -113 -113 -113s-113 51 -113 113z" />
    <glyph glyph-name="cedilla" unicode="&#xb8;" horiz-adv-x="222" 
d="M5 -191l18 44c16 -6 40 -13 61 -13c27 0 62 8 62 31c0 18 -21 31 -47 31c-16 0 -26 -3 -41 -8l-17 28l61 78h42l-42 -53l2 -2c6 4 16 7 33 7c42 0 84 -24 84 -73c0 -67 -69 -89 -124 -89c-32 0 -62 8 -92 19z" />
    <glyph glyph-name="hungarumlaut" unicode="&#x2dd;" horiz-adv-x="222" 
d="M-48 588l81 143h105l-120 -143h-66zM108 588l81 143h105l-120 -143h-66z" />
    <glyph glyph-name="ogonek" unicode="&#x2db;" horiz-adv-x="222" 
d="M190 3h40c-70 -58 -86 -93 -86 -121c0 -21 11 -42 38 -42c31 0 47 11 62 30l32 -18c-27 -46 -67 -62 -108 -62c-24 0 -92 3 -92 82c0 18 12 70 114 131z" />
    <glyph glyph-name="caron" unicode="&#x2c7;" horiz-adv-x="222" 
d="M261 731l-103 -143h-93l-104 143h84l69 -96l70 96h77z" />
    <glyph glyph-name="emdash" unicode="&#x2014;" horiz-adv-x="1000" 
d="M130 238v80h740v-80h-740z" />
    <glyph glyph-name="AE" unicode="&#xc6;" horiz-adv-x="926" 
d="M-7 0l361 714h535v-80h-351v-227h330v-80h-330v-247h357v-80h-447v208h-246l-102 -208h-107zM448 634h-41l-168 -346h209v346z" />
    <glyph glyph-name="ordfeminine" unicode="&#xaa;" horiz-adv-x="378" 
d="M317 622v-160c0 -24 4 -32 14 -32c7 0 15 0 22 2v-44c-13 -5 -26 -8 -43 -8c-31 0 -49 17 -51 46c-29 -30 -70 -46 -117 -46c-63 0 -117 27 -117 89c0 70 62 93 120 99c93 10 115 16 115 42c0 44 -39 49 -77 49c-48 0 -81 -13 -83 -56h-60c4 77 70 106 147 106
c60 0 130 -15 130 -87zM155 430c75 0 102 39 102 69v47c-21 -13 -63 -17 -100 -23c-36 -6 -64 -17 -64 -52c0 -34 29 -41 62 -41z" />
    <glyph glyph-name="Lslash" unicode="&#x141;" 
d="M78 0v240l-79 -56v76l79 56v398h95v-330l228 160v-76l-228 -160v-228h378v-80h-473z" />
    <glyph glyph-name="Oslash" unicode="&#xd8;" horiz-adv-x="760" 
d="M183 170l369 407c-39 45 -96 74 -172 74c-174 0 -247 -150 -247 -294c0 -67 16 -134 50 -187zM579 541l-369 -407c39 -44 95 -71 170 -71c174 0 247 150 247 294c0 65 -15 132 -48 184zM691 730l32 -30l-82 -90c54 -69 81 -159 81 -253c0 -194 -115 -374 -342 -374
c-97 0 -174 33 -229 86l-81 -89l-33 30l84 92c-55 68 -83 160 -83 255c0 194 115 374 342 374c99 0 176 -34 232 -88z" />
    <glyph glyph-name="OE" unicode="&#x152;" horiz-adv-x="1074" 
d="M372 63c100 0 179 59 179 141v301c0 21 0 46 -15 69c-27 41 -86 77 -162 77c-162 0 -241 -139 -241 -300c0 -159 82 -288 239 -288zM551 0v69h-2c-35 -55 -111 -86 -184 -86c-211 0 -327 163 -327 372c0 215 123 376 335 376c66 0 148 -25 176 -76h2v59h477v-80h-382
v-227h350v-80h-350v-247h388v-80h-483z" />
    <glyph glyph-name="ordmasculine" unicode="&#xba;" horiz-adv-x="384" 
d="M192 709c109 0 167 -72 167 -166c0 -96 -57 -163 -166 -163c-106 0 -168 68 -168 163c0 93 58 166 167 166zM192 659c-54 0 -99 -36 -99 -116c0 -60 28 -113 100 -113c71 0 98 52 98 112c0 97 -56 117 -99 117z" />
    <glyph glyph-name="ae" unicode="&#xe6;" horiz-adv-x="870" 
d="M756 308c-2 81 -53 146 -143 146c-91 0 -146 -63 -146 -146h289zM126 139c0 -56 48 -76 100 -76c112 0 161 70 161 117v87c-34 -22 -103 -25 -157 -35c-56 -10 -104 -30 -104 -93zM846 233h-379c0 -92 50 -170 155 -170c63 0 115 33 131 100h87
c-25 -112 -109 -175 -224 -175c-79 0 -153 24 -187 101c-39 -71 -122 -101 -218 -101c-98 0 -175 42 -175 145c0 117 87 142 175 159c125 24 176 20 176 82c0 70 -60 80 -117 80c-72 0 -125 -22 -129 -98h-85c5 128 104 173 219 173c60 0 142 -10 173 -75
c35 54 102 75 165 75c180 0 233 -135 233 -296z" />
    <glyph glyph-name="dotlessi" unicode="&#x131;" horiz-adv-x="222" 
d="M154 0h-85v517h85v-517z" />
    <glyph glyph-name="lslash" unicode="&#x142;" horiz-adv-x="222" 
d="M69 0v321l-70 -55v71l70 56v321h85v-254l70 56v-71l-70 -56v-389h-85z" />
    <glyph glyph-name="oslash" unicode="&#xf8;" horiz-adv-x="574" 
d="M156 137l242 270c-29 31 -68 47 -111 47c-89 0 -161 -70 -161 -196c0 -48 11 -88 30 -121zM420 377l-242 -269c29 -29 67 -45 109 -45c89 0 161 70 161 195c0 49 -11 89 -28 119zM540 509l-60 -66c38 -47 58 -112 58 -185c0 -151 -87 -270 -251 -270
c-69 0 -124 21 -165 57l-60 -67l-28 24l62 69c-40 49 -60 114 -60 187c0 152 87 271 251 271c70 0 126 -21 168 -59l58 65z" />
    <glyph glyph-name="oe" unicode="&#x153;" horiz-adv-x="891" 
d="M864 233h-375c-3 -90 48 -170 149 -170c67 0 120 37 140 101h81c-34 -117 -106 -176 -221 -176c-87 0 -156 27 -188 102c-32 -75 -102 -102 -179 -102c-163 0 -235 124 -235 271c0 151 75 270 235 270c79 0 145 -19 179 -91c36 61 110 91 183 91c172 0 240 -133 231 -296
zM489 308h285c0 87 -52 146 -141 146s-145 -61 -144 -146zM415 260c0 95 -27 194 -144 194c-109 0 -145 -105 -145 -206c0 -88 40 -185 145 -185c114 0 144 104 144 197z" />
    <glyph glyph-name="germandbls" unicode="&#xdf;" 
d="M64 0v531c0 119 79 200 198 200c98 0 207 -59 207 -175c0 -74 -30 -131 -104 -155v-2c90 -11 136 -92 136 -179c0 -137 -94 -232 -231 -232c-14 0 -29 2 -43 4v74c11 -3 23 -3 34 -3c91 0 150 60 150 146c0 130 -72 150 -184 150v68c81 -5 152 23 152 116
c0 63 -48 113 -111 113c-70 0 -119 -29 -119 -140v-516h-85z" />
    <glyph glyph-name="onesuperior" unicode="&#xb9;" horiz-adv-x="333" 
d="M249 709v-429h-68v308h-115v50c63 1 121 15 133 71h50z" />
    <glyph glyph-name="logicalnot" unicode="&#xac;" horiz-adv-x="600" 
d="M552 388v-279h-68v211h-436v68h504z" />
    <glyph glyph-name="mu" unicode="&#xb5;" 
d="M492 517v-517h-80v82h-2c-36 -64 -94 -94 -168 -94c-43 0 -74 11 -91 38h-2v-224h-85v715h85v-350c0 -63 40 -104 105 -104c103 0 153 69 153 162v292h85z" />
    <glyph glyph-name="mu" unicode="&#x3bc;" 
d="M492 517v-517h-80v82h-2c-36 -64 -94 -94 -168 -94c-43 0 -74 11 -91 38h-2v-224h-85v715h85v-350c0 -63 40 -104 105 -104c103 0 153 69 153 162v292h85z" />
    <glyph glyph-name="trademark" unicode="&#x2122;" horiz-adv-x="990" 
d="M390 714v-55h-129v-357h-68v357h-129v55h326zM927 714v-412h-68v344h-2l-135 -344h-43l-135 344h-2v-344h-68v412h105l123 -313l121 313h104z" />
    <glyph glyph-name="Eth" unicode="&#xd0;" horiz-adv-x="704" 
d="M78 0v339h-70v68h70v307h245c220 0 343 -110 343 -340c0 -239 -105 -374 -343 -374h-245zM173 634v-227h214v-68h-214v-259h158c65 0 240 18 240 281c0 170 -63 273 -238 273h-160z" />
    <glyph glyph-name="onehalf" unicode="&#xbd;" horiz-adv-x="834" 
d="M135 -28l435 753h64l-435 -753h-64zM219 709v-429h-68v308h-115v50c63 0 121 15 133 71h50zM570 275h-68c0 92 60 154 153 154c81 0 148 -46 148 -126c0 -75 -57 -112 -113 -145c-57 -34 -117 -62 -128 -103h235v-55h-303c5 101 60 137 125 174c78 45 116 71 116 130
c0 42 -37 70 -83 70c-60 0 -82 -47 -82 -99z" />
    <glyph glyph-name="plusminus" unicode="&#xb1;" horiz-adv-x="600" 
d="M48 271v68h218v166h68v-166h218v-68h-218v-167h-68v167h-218zM48 0v68h504v-68h-504z" />
    <glyph glyph-name="Thorn" unicode="&#xde;" horiz-adv-x="648" 
d="M173 0h-95v714h95v-114h218c142 0 219 -79 219 -212c0 -132 -77 -211 -219 -210h-218v-178zM173 520v-262h186c107 -1 156 45 156 130c0 86 -49 132 -156 132h-186z" />
    <glyph glyph-name="onequarter" unicode="&#xbc;" horiz-adv-x="834" 
d="M723 429v-278h60v-55h-60v-96h-62v96h-199v58l210 275h51zM659 344l-148 -193h150v193h-2zM150 -28l435 753h64l-435 -753h-64zM219 709v-429h-68v308h-115v50c63 0 121 15 133 71h50z" />
    <glyph glyph-name="divide" unicode="&#xf7;" horiz-adv-x="600" 
d="M48 219v68h504v-68h-504zM236 459c0 35 30 64 64 64s64 -30 64 -64c0 -32 -30 -64 -63 -64c-35 0 -65 30 -65 64zM236 47c0 35 30 64 64 64s64 -30 64 -64c0 -32 -30 -64 -63 -64c-35 0 -65 30 -65 64z" />
    <glyph glyph-name="brokenbar" unicode="&#xa6;" horiz-adv-x="222" 
d="M77 -89v250h68v-250h-68zM145 661v-250h-68v250h68z" />
    <glyph glyph-name="degree" unicode="&#xb0;" horiz-adv-x="400" 
d="M56 565c0 80 64 144 144 144s144 -64 144 -144s-64 -144 -144 -144s-144 64 -144 144zM106 565c0 -47 35 -94 94 -94s94 47 94 94s-35 94 -94 94s-94 -47 -94 -94z" />
    <glyph glyph-name="thorn" unicode="&#xfe;" horiz-adv-x="593" 
d="M467 263c0 97 -50 191 -160 191c-114 0 -158 -98 -158 -195c0 -102 46 -196 163 -196c116 0 155 99 155 200zM152 714v-267h2c28 57 94 82 165 82c159 0 238 -126 238 -272s-78 -269 -236 -269c-53 0 -129 20 -167 81h-2v-267h-85v912h85z" />
    <glyph glyph-name="threequarters" unicode="&#xbe;" horiz-adv-x="834" 
d="M740 429v-278h60v-55h-60v-96h-62v96h-199v58l210 275h51zM677 340l-148 -193h150v193h-2zM215 -28l435 753h64l-435 -753h-64zM177 477v50h24c44 0 83 18 83 65c0 40 -33 62 -77 62c-54 0 -80 -37 -80 -86h-68c5 86 59 141 148 141c82 0 145 -39 145 -117
c0 -38 -31 -70 -68 -85v-2c58 -11 87 -51 87 -102c0 -88 -79 -130 -162 -130c-89 0 -160 48 -160 141h68c1 -55 34 -86 92 -86c50 0 94 27 94 72c0 56 -46 77 -93 77h-33z" />
    <glyph glyph-name="twosuperior" unicode="&#xb2;" horiz-adv-x="333" 
d="M90 555h-68c0 92 60 154 153 154c81 0 148 -46 148 -126c0 -75 -57 -112 -113 -145c-57 -34 -117 -62 -128 -103h235v-55h-303c5 101 60 137 125 174c78 45 116 71 116 130c0 42 -37 70 -83 70c-60 0 -82 -47 -82 -99z" />
    <glyph glyph-name="registered" unicode="&#xae;" horiz-adv-x="800" 
d="M24 359c0 211 172 372 377 372c204 0 375 -161 375 -372c0 -215 -171 -376 -375 -376c-205 0 -377 161 -377 376zM92 359c0 -183 134 -321 309 -321c173 0 307 138 307 321c0 179 -134 317 -307 317c-175 0 -309 -138 -309 -317zM255 139v437h169c104 0 153 -41 153 -125
c0 -79 -50 -112 -115 -119l125 -193h-73l-119 188h-72v-188h-68zM323 521v-139h71c60 0 115 3 115 72c0 58 -50 67 -96 67h-90z" />
    <glyph glyph-name="minus" unicode="&#x2212;" horiz-adv-x="600" 
d="M48 219v68h504v-68h-504z" />
    <glyph glyph-name="eth" unicode="&#xf0;" horiz-adv-x="574" 
d="M272 506c53 0 103 -15 139 -56h2c-31 69 -91 129 -122 151l-115 -54l-38 40l109 51c-21 18 -51 37 -70 48l70 45c18 -13 51 -35 77 -56l120 56l35 -37l-115 -53c119 -98 174 -230 174 -383c0 -151 -87 -270 -251 -270s-251 119 -251 270c0 130 84 248 236 248zM282 431
c-102 0 -156 -71 -156 -173c0 -125 72 -195 161 -195s161 70 161 195c0 91 -49 173 -166 173z" />
    <glyph glyph-name="multiply" unicode="&#xd7;" horiz-adv-x="600" 
d="M119 24l-48 48l182 182l-181 180l48 48l181 -180l180 180l48 -48l-180 -180l181 -182l-48 -48l-181 182z" />
    <glyph glyph-name="threesuperior" unicode="&#xb3;" horiz-adv-x="333" 
d="M132 477v50h24c44 0 83 18 83 65c0 40 -33 62 -77 62c-54 0 -80 -37 -80 -86h-68c5 86 59 141 148 141c82 0 145 -39 145 -117c0 -38 -31 -70 -68 -85v-2c58 -11 87 -51 87 -102c0 -88 -79 -130 -162 -130c-89 0 -160 48 -160 141h68c1 -55 34 -86 92 -86
c50 0 94 27 94 72c0 56 -46 77 -93 77h-33z" />
    <glyph glyph-name="copyright" unicode="&#xa9;" horiz-adv-x="800" 
d="M24 359c0 211 172 372 377 372c204 0 375 -161 375 -372c0 -215 -171 -376 -375 -376c-205 0 -377 161 -377 376zM92 359c0 -183 134 -321 309 -321c173 0 307 138 307 321c0 178 -134 317 -307 317c-175 0 -309 -139 -309 -317zM535 285h64c-21 -97 -94 -157 -186 -157
c-135 0 -222 98 -222 229c0 133 82 228 219 228c95 0 173 -52 188 -152h-63c-11 56 -58 97 -124 97c-99 0 -152 -75 -152 -171c0 -94 59 -176 154 -176c66 0 113 43 122 102z" />
    <glyph glyph-name="Aacute" unicode="&#xc1;" horiz-adv-x="648" 
d="M-7 0l279 714h105l279 -714h-105l-78 215h-302l-80 -215h-98zM322 628l-121 -333h242l-119 333h-2zM263 765l86 143h109l-131 -143h-64z" />
    <glyph glyph-name="Acircumflex" unicode="&#xc2;" horiz-adv-x="648" 
d="M-7 0l279 714h105l279 -714h-105l-78 215h-302l-80 -215h-98zM322 628l-121 -333h242l-119 333h-2zM174 765l103 143h93l104 -143h-84l-69 96l-70 -96h-77z" />
    <glyph glyph-name="Adieresis" unicode="&#xc4;" horiz-adv-x="648" 
d="M-7 0l279 714h105l279 -714h-105l-78 215h-302l-80 -215h-98zM322 628l-121 -333h242l-119 333h-2zM373 769v104h90v-104h-90zM185 769v104h90v-104h-90z" />
    <glyph glyph-name="Agrave" unicode="&#xc0;" horiz-adv-x="648" 
d="M-7 0l279 714h105l279 -714h-105l-78 215h-302l-80 -215h-98zM322 628l-121 -333h242l-119 333h-2zM321 765l-131 143h109l86 -143h-64z" />
    <glyph glyph-name="Aring" unicode="&#xc5;" horiz-adv-x="648" 
d="M-7 0l279 714h105l279 -714h-105l-78 215h-302l-80 -215h-98zM322 628l-121 -333h242l-119 333h-2zM256 839c0 -38 30 -68 68 -68s68 30 68 68s-30 68 -68 68s-68 -30 -68 -68zM211 839c0 62 51 113 113 113s113 -51 113 -113s-51 -113 -113 -113s-113 51 -113 113z" />
    <glyph glyph-name="Atilde" unicode="&#xc3;" horiz-adv-x="648" 
d="M-7 0l279 714h105l279 -714h-105l-78 215h-302l-80 -215h-98zM322 628l-121 -333h242l-119 333h-2zM446 888h52c-4 -28 -14 -55 -31 -80c-17 -19 -41 -31 -79 -31c-17 0 -42 10 -66 20c-24 9 -49 19 -67 19c-22 0 -50 -17 -48 -42h-52c16 59 42 110 105 110
c26 0 51 -10 74 -20s45 -20 66 -20c26 0 40 24 46 44z" />
    <glyph glyph-name="Ccedilla" unicode="&#xc7;" horiz-adv-x="722" 
d="M675 499h-95c-20 101 -101 152 -200 152c-170 0 -242 -140 -242 -289c0 -163 72 -299 243 -299c125 0 197 88 206 206h95c-18 -175 -126 -283 -301 -285l-29 -37l2 -2c6 4 16 7 33 7c42 0 84 -24 84 -73c0 -67 -69 -89 -124 -89c-32 0 -62 8 -92 19l18 44
c16 -6 40 -13 61 -13c27 0 62 8 62 31c0 18 -21 31 -47 31c-16 0 -26 -3 -41 -8l-17 28l49 63c-200 15 -297 172 -297 370c0 207 118 376 338 376c149 0 272 -80 294 -232z" />
    <glyph glyph-name="Eacute" unicode="&#xc9;" horiz-adv-x="611" 
d="M78 0v714h493v-80h-398v-227h371v-80h-371v-247h401v-80h-496zM245 765l86 143h109l-131 -143h-64z" />
    <glyph glyph-name="Ecircumflex" unicode="&#xca;" horiz-adv-x="611" 
d="M78 0v714h493v-80h-398v-227h371v-80h-371v-247h401v-80h-496zM156 765l103 143h93l104 -143h-84l-69 96l-70 -96h-77z" />
    <glyph glyph-name="Edieresis" unicode="&#xcb;" horiz-adv-x="611" 
d="M78 0v714h493v-80h-398v-227h371v-80h-371v-247h401v-80h-496zM355 769v104h90v-104h-90zM167 769v104h90v-104h-90z" />
    <glyph glyph-name="Egrave" unicode="&#xc8;" horiz-adv-x="611" 
d="M78 0v714h493v-80h-398v-227h371v-80h-371v-247h401v-80h-496zM303 765l-131 143h109l86 -143h-64z" />
    <glyph glyph-name="Iacute" unicode="&#xcd;" horiz-adv-x="259" 
d="M82 0v714h95v-714h-95zM69 765l86 143h109l-131 -143h-64z" />
    <glyph glyph-name="Icircumflex" unicode="&#xce;" horiz-adv-x="259" 
d="M82 0v714h95v-714h-95zM-20 765l103 143h93l104 -143h-84l-69 96l-70 -96h-77z" />
    <glyph glyph-name="Idieresis" unicode="&#xcf;" horiz-adv-x="259" 
d="M82 0v714h95v-714h-95zM179 769v104h90v-104h-90zM-9 769v104h90v-104h-90z" />
    <glyph glyph-name="Igrave" unicode="&#xcc;" horiz-adv-x="259" 
d="M82 0v714h95v-714h-95zM127 765l-131 143h109l86 -143h-64z" />
    <glyph glyph-name="Ntilde" unicode="&#xd1;" horiz-adv-x="722" 
d="M77 0v714h101l376 -579h2v579h90v-714h-104l-373 573h-2v-573h-90zM483 888h52c-4 -28 -14 -55 -31 -80c-17 -19 -41 -31 -79 -31c-17 0 -42 10 -66 20c-24 9 -49 19 -67 19c-22 0 -50 -17 -48 -42h-52c16 59 42 110 105 110c26 0 51 -10 74 -20s45 -20 66 -20
c26 0 40 24 46 44z" />
    <glyph glyph-name="Oacute" unicode="&#xd3;" horiz-adv-x="760" 
d="M38 357c0 194 115 374 342 374s342 -180 342 -374s-115 -374 -342 -374s-342 180 -342 374zM133 357c0 -144 73 -294 247 -294s247 150 247 294s-73 294 -247 294s-247 -150 -247 -294zM319 765l86 143h109l-131 -143h-64z" />
    <glyph glyph-name="Ocircumflex" unicode="&#xd4;" horiz-adv-x="760" 
d="M38 357c0 194 115 374 342 374s342 -180 342 -374s-115 -374 -342 -374s-342 180 -342 374zM133 357c0 -144 73 -294 247 -294s247 150 247 294s-73 294 -247 294s-247 -150 -247 -294zM230 765l103 143h93l104 -143h-84l-69 96l-70 -96h-77z" />
    <glyph glyph-name="Odieresis" unicode="&#xd6;" horiz-adv-x="760" 
d="M38 357c0 194 115 374 342 374s342 -180 342 -374s-115 -374 -342 -374s-342 180 -342 374zM133 357c0 -144 73 -294 247 -294s247 150 247 294s-73 294 -247 294s-247 -150 -247 -294zM429 769v104h90v-104h-90zM241 769v104h90v-104h-90z" />
    <glyph glyph-name="Ograve" unicode="&#xd2;" horiz-adv-x="760" 
d="M38 357c0 194 115 374 342 374s342 -180 342 -374s-115 -374 -342 -374s-342 180 -342 374zM133 357c0 -144 73 -294 247 -294s247 150 247 294s-73 294 -247 294s-247 -150 -247 -294zM377 765l-131 143h109l86 -143h-64z" />
    <glyph glyph-name="Otilde" unicode="&#xd5;" horiz-adv-x="760" 
d="M38 357c0 194 115 374 342 374s342 -180 342 -374s-115 -374 -342 -374s-342 180 -342 374zM133 357c0 -144 73 -294 247 -294s247 150 247 294s-73 294 -247 294s-247 -150 -247 -294zM502 888h52c-4 -28 -14 -55 -31 -80c-17 -19 -41 -31 -79 -31c-17 0 -42 10 -66 20
c-24 9 -49 19 -67 19c-22 0 -50 -17 -48 -42h-52c16 59 42 110 105 110c26 0 51 -10 74 -20s45 -20 66 -20c26 0 40 24 46 44z" />
    <glyph glyph-name="Scaron" unicode="&#x160;" horiz-adv-x="648" 
d="M581 505h-90c-11 102 -79 146 -177 146c-80 0 -160 -29 -160 -122c0 -88 114 -101 229 -127c114 -26 228 -66 228 -206c0 -152 -149 -213 -279 -213c-160 0 -295 78 -295 252h90c0 -120 100 -172 208 -172c86 0 181 27 181 130c0 98 -114 115 -228 140s-229 58 -229 189
c0 145 129 209 259 209c146 0 257 -69 263 -226zM474 908l-103 -143h-93l-104 143h84l69 -96l70 96h77z" />
    <glyph glyph-name="Uacute" unicode="&#xda;" horiz-adv-x="722" 
d="M648 714v-456c0 -180 -103 -275 -281 -275c-184 0 -293 85 -293 275v456h95v-456c0 -126 72 -195 198 -195c120 0 186 69 186 195v456h95zM300 765l86 143h109l-131 -143h-64z" />
    <glyph glyph-name="Ucircumflex" unicode="&#xdb;" horiz-adv-x="722" 
d="M648 714v-456c0 -180 -103 -275 -281 -275c-184 0 -293 85 -293 275v456h95v-456c0 -126 72 -195 198 -195c120 0 186 69 186 195v456h95zM211 765l103 143h93l104 -143h-84l-69 96l-70 -96h-77z" />
    <glyph glyph-name="Udieresis" unicode="&#xdc;" horiz-adv-x="722" 
d="M648 714v-456c0 -180 -103 -275 -281 -275c-184 0 -293 85 -293 275v456h95v-456c0 -126 72 -195 198 -195c120 0 186 69 186 195v456h95zM410 769v104h90v-104h-90zM222 769v104h90v-104h-90z" />
    <glyph glyph-name="Ugrave" unicode="&#xd9;" horiz-adv-x="722" 
d="M648 714v-456c0 -180 -103 -275 -281 -275c-184 0 -293 85 -293 275v456h95v-456c0 -126 72 -195 198 -195c120 0 186 69 186 195v456h95zM358 765l-131 143h109l86 -143h-64z" />
    <glyph glyph-name="Yacute" unicode="&#xdd;" horiz-adv-x="648" 
d="M646 714l-273 -422v-292h-95v292l-276 422h113l214 -340l209 340h108zM263 765l86 143h109l-131 -143h-64z" />
    <glyph glyph-name="Ydieresis" unicode="&#x178;" horiz-adv-x="648" 
d="M646 714l-273 -422v-292h-95v292l-276 422h113l214 -340l209 340h108zM373 769v104h90v-104h-90zM185 769v104h90v-104h-90z" />
    <glyph glyph-name="Zcaron" unicode="&#x17d;" horiz-adv-x="611" 
d="M22 0v80l444 554h-410v80h522v-80l-443 -554h455v-80h-568zM456 908l-103 -143h-93l-104 143h84l69 -96l70 96h77z" />
    <glyph glyph-name="aacute" unicode="&#xe1;" horiz-adv-x="537" 
d="M384 180v87c-33 -24 -97 -25 -154 -35c-56 -10 -104 -30 -104 -93c0 -56 48 -76 100 -76c112 0 158 70 158 117zM522 68v-66c-15 -9 -34 -14 -61 -14c-44 0 -72 24 -72 80c-47 -55 -110 -80 -182 -80c-94 0 -171 42 -171 145c0 117 87 142 175 159c94 18 174 12 174 76
c0 74 -61 86 -115 86c-72 0 -125 -22 -129 -98h-85c5 128 104 173 219 173c93 0 194 -21 194 -142v-266c0 -40 0 -58 27 -58c7 0 15 1 26 5zM208 588l86 143h109l-131 -143h-64z" />
    <glyph glyph-name="acircumflex" unicode="&#xe2;" horiz-adv-x="537" 
d="M384 180v87c-33 -24 -97 -25 -154 -35c-56 -10 -104 -30 -104 -93c0 -56 48 -76 100 -76c112 0 158 70 158 117zM522 68v-66c-15 -9 -34 -14 -61 -14c-44 0 -72 24 -72 80c-47 -55 -110 -80 -182 -80c-94 0 -171 42 -171 145c0 117 87 142 175 159c94 18 174 12 174 76
c0 74 -61 86 -115 86c-72 0 -125 -22 -129 -98h-85c5 128 104 173 219 173c93 0 194 -21 194 -142v-266c0 -40 0 -58 27 -58c7 0 15 1 26 5zM119 588l103 143h93l104 -143h-84l-69 96l-70 -96h-77z" />
    <glyph glyph-name="adieresis" unicode="&#xe4;" horiz-adv-x="537" 
d="M384 180v87c-33 -24 -97 -25 -154 -35c-56 -10 -104 -30 -104 -93c0 -56 48 -76 100 -76c112 0 158 70 158 117zM522 68v-66c-15 -9 -34 -14 -61 -14c-44 0 -72 24 -72 80c-47 -55 -110 -80 -182 -80c-94 0 -171 42 -171 145c0 117 87 142 175 159c94 18 174 12 174 76
c0 74 -61 86 -115 86c-72 0 -125 -22 -129 -98h-85c5 128 104 173 219 173c93 0 194 -21 194 -142v-266c0 -40 0 -58 27 -58c7 0 15 1 26 5zM318 592v104h90v-104h-90zM130 592v104h90v-104h-90z" />
    <glyph glyph-name="agrave" unicode="&#xe0;" horiz-adv-x="537" 
d="M384 180v87c-33 -24 -97 -25 -154 -35c-56 -10 -104 -30 -104 -93c0 -56 48 -76 100 -76c112 0 158 70 158 117zM522 68v-66c-15 -9 -34 -14 -61 -14c-44 0 -72 24 -72 80c-47 -55 -110 -80 -182 -80c-94 0 -171 42 -171 145c0 117 87 142 175 159c94 18 174 12 174 76
c0 74 -61 86 -115 86c-72 0 -125 -22 -129 -98h-85c5 128 104 173 219 173c93 0 194 -21 194 -142v-266c0 -40 0 -58 27 -58c7 0 15 1 26 5zM266 588l-131 143h109l86 -143h-64z" />
    <glyph glyph-name="aring" unicode="&#xe5;" horiz-adv-x="537" 
d="M384 180v87c-33 -24 -97 -25 -154 -35c-56 -10 -104 -30 -104 -93c0 -56 48 -76 100 -76c112 0 158 70 158 117zM522 68v-66c-15 -9 -34 -14 -61 -14c-44 0 -72 24 -72 80c-47 -55 -110 -80 -182 -80c-94 0 -171 42 -171 145c0 117 87 142 175 159c94 18 174 12 174 76
c0 74 -61 86 -115 86c-72 0 -125 -22 -129 -98h-85c5 128 104 173 219 173c93 0 194 -21 194 -142v-266c0 -40 0 -58 27 -58c7 0 15 1 26 5zM201 662c0 -38 30 -68 68 -68s68 30 68 68s-30 68 -68 68s-68 -30 -68 -68zM156 662c0 62 51 113 113 113s113 -51 113 -113
s-51 -113 -113 -113s-113 51 -113 113z" />
    <glyph glyph-name="atilde" unicode="&#xe3;" horiz-adv-x="537" 
d="M384 180v87c-33 -24 -97 -25 -154 -35c-56 -10 -104 -30 -104 -93c0 -56 48 -76 100 -76c112 0 158 70 158 117zM522 68v-66c-15 -9 -34 -14 -61 -14c-44 0 -72 24 -72 80c-47 -55 -110 -80 -182 -80c-94 0 -171 42 -171 145c0 117 87 142 175 159c94 18 174 12 174 76
c0 74 -61 86 -115 86c-72 0 -125 -22 -129 -98h-85c5 128 104 173 219 173c93 0 194 -21 194 -142v-266c0 -40 0 -58 27 -58c7 0 15 1 26 5zM391 711h52c-4 -28 -14 -55 -31 -80c-17 -19 -41 -31 -79 -31c-17 0 -42 10 -66 20c-24 9 -49 19 -67 19c-22 0 -50 -17 -48 -42
h-52c16 59 42 110 105 110c26 0 51 -10 74 -20s45 -20 66 -20c26 0 40 24 46 44z" />
    <glyph glyph-name="ccedilla" unicode="&#xe7;" horiz-adv-x="537" 
d="M503 351h-88c-13 65 -58 103 -128 103c-123 0 -161 -97 -161 -202c0 -95 43 -189 151 -189c82 0 131 48 142 126h87c-18 -121 -92 -195 -213 -200l-33 -42l2 -2c6 4 16 7 33 7c42 0 84 -24 84 -73c0 -67 -69 -89 -124 -89c-32 0 -62 8 -92 19l18 44c16 -6 40 -13 61 -13
c27 0 62 8 62 31c0 18 -21 31 -47 31c-16 0 -26 -3 -41 -8l-17 28l53 68c-141 11 -216 117 -216 262c0 155 80 277 244 277c117 0 211 -55 223 -178z" />
    <glyph glyph-name="eacute" unicode="&#xe9;" horiz-adv-x="537" 
d="M421 164h84c-23 -114 -105 -176 -221 -176c-165 0 -243 114 -248 272c0 155 102 269 243 269c183 0 239 -171 234 -296h-387c-3 -90 48 -170 161 -170c70 0 119 34 134 101zM126 308h297c-4 81 -65 146 -149 146c-89 0 -142 -67 -148 -146zM208 588l86 143h109l-131 -143
h-64z" />
    <glyph glyph-name="ecircumflex" unicode="&#xea;" horiz-adv-x="537" 
d="M421 164h84c-23 -114 -105 -176 -221 -176c-165 0 -243 114 -248 272c0 155 102 269 243 269c183 0 239 -171 234 -296h-387c-3 -90 48 -170 161 -170c70 0 119 34 134 101zM126 308h297c-4 81 -65 146 -149 146c-89 0 -142 -67 -148 -146zM119 588l103 143h93l104 -143
h-84l-69 96l-70 -96h-77z" />
    <glyph glyph-name="edieresis" unicode="&#xeb;" horiz-adv-x="537" 
d="M421 164h84c-23 -114 -105 -176 -221 -176c-165 0 -243 114 -248 272c0 155 102 269 243 269c183 0 239 -171 234 -296h-387c-3 -90 48 -170 161 -170c70 0 119 34 134 101zM126 308h297c-4 81 -65 146 -149 146c-89 0 -142 -67 -148 -146zM318 592v104h90v-104h-90z
M130 592v104h90v-104h-90z" />
    <glyph glyph-name="egrave" unicode="&#xe8;" horiz-adv-x="537" 
d="M421 164h84c-23 -114 -105 -176 -221 -176c-165 0 -243 114 -248 272c0 155 102 269 243 269c183 0 239 -171 234 -296h-387c-3 -90 48 -170 161 -170c70 0 119 34 134 101zM126 308h297c-4 81 -65 146 -149 146c-89 0 -142 -67 -148 -146zM266 588l-131 143h109l86 -143
h-64z" />
    <glyph glyph-name="iacute" unicode="&#xed;" horiz-adv-x="222" 
d="M154 0h-85v517h85v-517zM50 588l86 143h109l-131 -143h-64z" />
    <glyph glyph-name="icircumflex" unicode="&#xee;" horiz-adv-x="222" 
d="M154 0h-85v517h85v-517zM-39 588l103 143h93l104 -143h-84l-69 96l-70 -96h-77z" />
    <glyph glyph-name="idieresis" unicode="&#xef;" horiz-adv-x="222" 
d="M154 0h-85v517h85v-517zM160 592v104h90v-104h-90zM-28 592v104h90v-104h-90z" />
    <glyph glyph-name="igrave" unicode="&#xec;" horiz-adv-x="222" 
d="M154 0h-85v517h85v-517zM108 588l-131 143h109l86 -143h-64z" />
    <glyph glyph-name="ntilde" unicode="&#xf1;" 
d="M64 0v517h80v-82h2c36 64 94 94 168 94c136 0 178 -78 178 -189v-340h-85v350c0 63 -40 104 -105 104c-103 0 -153 -69 -153 -162v-292h-85zM400 711h52c-4 -28 -14 -55 -31 -80c-17 -19 -41 -31 -79 -31c-17 0 -42 10 -66 20c-24 9 -49 19 -67 19c-22 0 -50 -17 -48 -42
h-52c16 59 42 110 105 110c26 0 51 -10 74 -20s45 -20 66 -20c26 0 40 24 46 44z" />
    <glyph glyph-name="oacute" unicode="&#xf3;" horiz-adv-x="574" 
d="M36 258c0 152 87 271 251 271s251 -119 251 -271c0 -151 -87 -270 -251 -270s-251 119 -251 270zM126 258c0 -125 72 -195 161 -195s161 70 161 195c0 126 -72 196 -161 196s-161 -70 -161 -196zM226 588l86 143h109l-131 -143h-64z" />
    <glyph glyph-name="ocircumflex" unicode="&#xf4;" horiz-adv-x="574" 
d="M36 258c0 152 87 271 251 271s251 -119 251 -271c0 -151 -87 -270 -251 -270s-251 119 -251 270zM126 258c0 -125 72 -195 161 -195s161 70 161 195c0 126 -72 196 -161 196s-161 -70 -161 -196zM137 588l103 143h93l104 -143h-84l-69 96l-70 -96h-77z" />
    <glyph glyph-name="odieresis" unicode="&#xf6;" horiz-adv-x="574" 
d="M36 258c0 152 87 271 251 271s251 -119 251 -271c0 -151 -87 -270 -251 -270s-251 119 -251 270zM126 258c0 -125 72 -195 161 -195s161 70 161 195c0 126 -72 196 -161 196s-161 -70 -161 -196zM336 592v104h90v-104h-90zM148 592v104h90v-104h-90z" />
    <glyph glyph-name="ograve" unicode="&#xf2;" horiz-adv-x="574" 
d="M36 258c0 152 87 271 251 271s251 -119 251 -271c0 -151 -87 -270 -251 -270s-251 119 -251 270zM126 258c0 -125 72 -195 161 -195s161 70 161 195c0 126 -72 196 -161 196s-161 -70 -161 -196zM284 588l-131 143h109l86 -143h-64z" />
    <glyph glyph-name="otilde" unicode="&#xf5;" horiz-adv-x="574" 
d="M36 258c0 152 87 271 251 271s251 -119 251 -271c0 -151 -87 -270 -251 -270s-251 119 -251 270zM126 258c0 -125 72 -195 161 -195s161 70 161 195c0 126 -72 196 -161 196s-161 -70 -161 -196zM409 711h52c-4 -28 -14 -55 -31 -80c-17 -19 -41 -31 -79 -31
c-17 0 -42 10 -66 20c-24 9 -49 19 -67 19c-22 0 -50 -17 -48 -42h-52c16 59 42 110 105 110c26 0 51 -10 74 -20s45 -20 66 -20c26 0 40 24 46 44z" />
    <glyph glyph-name="scaron" unicode="&#x161;" horiz-adv-x="500" 
d="M31 163h85c3 -76 69 -100 139 -100c53 0 125 12 125 77c0 66 -84 77 -169 96c-84 19 -169 47 -169 146c0 104 103 147 193 147c114 0 205 -36 212 -162h-85c-6 66 -64 87 -120 87c-51 0 -110 -14 -110 -66c0 -61 90 -71 169 -90c85 -19 169 -47 169 -147
c0 -123 -115 -163 -220 -163c-116 0 -214 47 -219 175zM400 731l-103 -143h-93l-104 143h84l69 -96l70 96h77z" />
    <glyph glyph-name="uacute" unicode="&#xfa;" 
d="M492 517v-517h-80v82h-2c-36 -64 -94 -94 -168 -94c-136 0 -178 78 -178 189v340h85v-350c0 -63 40 -104 105 -104c103 0 153 69 153 162v292h85zM217 588l86 143h109l-131 -143h-64z" />
    <glyph glyph-name="ucircumflex" unicode="&#xfb;" 
d="M492 517v-517h-80v82h-2c-36 -64 -94 -94 -168 -94c-136 0 -178 78 -178 189v340h85v-350c0 -63 40 -104 105 -104c103 0 153 69 153 162v292h85zM128 588l103 143h93l104 -143h-84l-69 96l-70 -96h-77z" />
    <glyph glyph-name="udieresis" unicode="&#xfc;" 
d="M492 517v-517h-80v82h-2c-36 -64 -94 -94 -168 -94c-136 0 -178 78 -178 189v340h85v-350c0 -63 40 -104 105 -104c103 0 153 69 153 162v292h85zM327 592v104h90v-104h-90zM139 592v104h90v-104h-90z" />
    <glyph glyph-name="ugrave" unicode="&#xf9;" 
d="M492 517v-517h-80v82h-2c-36 -64 -94 -94 -168 -94c-136 0 -178 78 -178 189v340h85v-350c0 -63 40 -104 105 -104c103 0 153 69 153 162v292h85zM275 588l-131 143h109l86 -143h-64z" />
    <glyph glyph-name="yacute" unicode="&#xfd;" horiz-adv-x="500" 
d="M492 517l-225 -586c-39 -101 -74 -138 -150 -138c-20 0 -40 2 -59 9v78c16 -5 33 -12 50 -12c35 0 54 17 70 47l35 88l-205 514h96l151 -423h2l145 423h90zM189 588l86 143h109l-131 -143h-64z" />
    <glyph glyph-name="ydieresis" unicode="&#xff;" horiz-adv-x="500" 
d="M492 517l-225 -586c-39 -101 -74 -138 -150 -138c-20 0 -40 2 -59 9v78c16 -5 33 -12 50 -12c35 0 54 17 70 47l35 88l-205 514h96l151 -423h2l145 423h90zM299 592v104h90v-104h-90zM111 592v104h90v-104h-90z" />
    <glyph glyph-name="zcaron" unicode="&#x17e;" horiz-adv-x="480" 
d="M22 0v65l312 377h-292v75h402v-58l-316 -384h330v-75h-436zM390 731l-103 -143h-93l-104 143h84l69 -96l70 96h77z" />
    <glyph glyph-name="Euro" unicode="&#x20ac;" 
d="M513 664v-87c-29 28 -79 53 -151 53c-109 0 -165 -75 -178 -176h288l-24 -67h-273c-1 -10 -1 -23 -1 -35c0 -14 1 -28 1 -37h248l-24 -68h-215c16 -115 77 -180 179 -180c71 0 118 24 150 53v-88c-24 -20 -80 -43 -161 -43c-138 0 -229 82 -253 258h-74l23 68h44
c-1 8 -1 24 -1 37c0 12 0 25 1 35h-67l23 67h50c22 147 97 255 254 255c76 0 134 -23 161 -45z" />
    <hkern u1="&#x2019;" u2="t" k="18" />
    <hkern u1="&#x2019;" u2="s" k="74" />
    <hkern u1="&#x2019;" u2="&#x2019;" k="95" />
    <hkern u1="A" u2="y" k="18" />
    <hkern u1="A" u2="w" k="18" />
    <hkern u1="A" u2="v" k="18" />
    <hkern u1="A" u2="Y" k="74" />
    <hkern u1="A" u2="W" k="24" />
    <hkern u1="A" u2="V" k="46" />
    <hkern u1="A" u2="T" k="92" />
    <hkern u1="A" u2="&#x2019;" k="74" />
    <hkern u1="F" u2="A" k="55" />
    <hkern u1="F" u2="&#x2e;" k="157" />
    <hkern u1="F" u2="&#x2c;" k="157" />
    <hkern u1="L" u2="y" k="37" />
    <hkern u1="L" u2="Y" k="111" />
    <hkern u1="L" u2="W" k="55" />
    <hkern u1="L" u2="V" k="92" />
    <hkern u1="L" u2="T" k="92" />
    <hkern u1="L" u2="&#x2019;" k="74" />
    <hkern u1="P" u2="A" k="74" />
    <hkern u1="P" u2="&#x2e;" k="179" />
    <hkern u1="P" u2="&#x2c;" k="179" />
    <hkern u1="R" u2="Y" k="37" />
    <hkern u1="R" u2="W" k="18" />
    <hkern u1="R" u2="V" k="18" />
    <hkern u1="R" u2="T" k="18" />
    <hkern u1="T" u2="y" k="111" />
    <hkern u1="T" u2="w" k="111" />
    <hkern u1="T" u2="u" k="92" />
    <hkern u1="T" u2="s" k="111" />
    <hkern u1="T" u2="r" k="92" />
    <hkern u1="T" u2="o" k="111" />
    <hkern u1="T" u2="e" k="111" />
    <hkern u1="T" u2="c" k="111" />
    <hkern u1="T" u2="a" k="111" />
    <hkern u1="T" u2="A" k="92" />
    <hkern u1="T" u2="&#x3b;" k="111" />
    <hkern u1="T" u2="&#x3a;" k="111" />
    <hkern u1="T" u2="&#x2e;" k="111" />
    <hkern u1="T" u2="&#x2d;" k="129" />
    <hkern u1="T" u2="&#x2c;" k="111" />
    <hkern u1="V" u2="y" k="18" />
    <hkern u1="V" u2="u" k="37" />
    <hkern u1="V" u2="r" k="37" />
    <hkern u1="V" u2="o" k="55" />
    <hkern u1="V" u2="i" k="18" />
    <hkern u1="V" u2="e" k="55" />
    <hkern u1="V" u2="a" k="55" />
    <hkern u1="V" u2="A" k="46" />
    <hkern u1="V" u2="&#x3b;" k="46" />
    <hkern u1="V" u2="&#x3a;" k="46" />
    <hkern u1="V" u2="&#x2e;" k="129" />
    <hkern u1="V" u2="&#x2d;" k="55" />
    <hkern u1="V" u2="&#x2c;" k="129" />
    <hkern u1="W" u2="u" k="18" />
    <hkern u1="W" u2="r" k="18" />
    <hkern u1="W" u2="o" k="57" />
    <hkern u1="W" u2="e" k="57" />
    <hkern u1="W" u2="a" k="37" />
    <hkern u1="W" u2="A" k="24" />
    <hkern u1="W" u2="&#x3b;" k="18" />
    <hkern u1="W" u2="&#x3a;" k="18" />
    <hkern u1="W" u2="&#x2e;" k="74" />
    <hkern u1="W" u2="&#x2c;" k="74" />
    <hkern u1="Y" u2="v" k="55" />
    <hkern u1="Y" u2="u" k="74" />
    <hkern u1="Y" u2="q" k="92" />
    <hkern u1="Y" u2="p" k="74" />
    <hkern u1="Y" u2="o" k="111" />
    <hkern u1="Y" u2="i" k="37" />
    <hkern u1="Y" u2="e" k="111" />
    <hkern u1="Y" u2="a" k="92" />
    <hkern u1="Y" u2="A" k="74" />
    <hkern u1="Y" u2="&#x3b;" k="92" />
    <hkern u1="Y" u2="&#x3a;" k="92" />
    <hkern u1="Y" u2="&#x2e;" k="139" />
    <hkern u1="Y" u2="&#x2d;" k="111" />
    <hkern u1="Y" u2="&#x2c;" k="139" />
    <hkern u1="&#x2018;" u2="&#x2018;" k="95" />
    <hkern u1="f" u2="f" k="18" />
    <hkern u1="f" u2="&#x2019;" k="-18" />
    <hkern u1="r" u2="q" k="18" />
    <hkern u1="r" u2="o" k="18" />
    <hkern u1="r" u2="n" k="-18" />
    <hkern u1="r" u2="g" k="28" />
    <hkern u1="r" u2="e" k="18" />
    <hkern u1="r" u2="d" k="18" />
    <hkern u1="r" u2="c" k="18" />
    <hkern u1="r" u2="&#x2e;" k="92" />
    <hkern u1="r" u2="&#x2d;" k="55" />
    <hkern u1="r" u2="&#x2c;" k="92" />
    <hkern u1="v" u2="&#x2e;" k="74" />
    <hkern u1="v" u2="&#x2c;" k="74" />
    <hkern u1="w" u2="&#x2e;" k="55" />
    <hkern u1="w" u2="&#x2c;" k="55" />
    <hkern u1="y" u2="&#x2e;" k="74" />
    <hkern u1="y" u2="&#x2c;" k="74" />
  </font>
</defs></svg>
